{
  "href": "https://api.spotify.com/v1/users/ivzyswosox3xjkxekxxc7mw0m/playlists?offset=0&limit=10", 
  "items": [
    {
      "collaborative": false, 
      "description": "A blend of music for Aaditya and Raswanth. Updates daily.", 
      "external_urls": {
        "spotify": "https://open.spotify.com/playlist/37i9dQZF1EJw11MvVIld7q"
      }, 
      "href": "https://api.spotify.com/v1/playlists/37i9dQZF1EJw11MvVIld7q", 
      "id": "37i9dQZF1EJw11MvVIld7q", 
      "images": [
        {
          "height": null, 
          "url": "https://blend-playlist-covers.spotifycdn.com/v2/blend_LARGE-gold-yellow-en.jpg", 
          "width": null
        }
      ], 
      "name": "Raswanth + Aaditya", 
      "owner": {
        "display_name": "Spotify", 
        "external_urls": {
          "spotify": "https://open.spotify.com/user/spotify"
        }, 
        "href": "https://api.spotify.com/v1/users/spotify", 
        "id": "spotify", 
        "type": "user", 
        "uri": "spotify:user:spotify"
      }, 
      "primary_color": null, 
      "public": false, 
      "snapshot_id": "MCwwMDAwMDAwMGQ0YjgzMGE5MzEyYjc2MWIwOGI2MjI1MDlmNjFlM2Qz", 
      "tracks": {
        "href": "https://api.spotify.com/v1/playlists/37i9dQZF1EJw11MvVIld7q/tracks", 
        "total": 50
      }, 
      "type": "playlist", 
      "uri": "spotify:playlist:37i9dQZF1EJw11MvVIld7q"
    }, 
    {
      "collaborative": false, 
      "description": "A blend of music for Aaditya and Adhityaa. Updates daily.", 
      "external_urls": {
        "spotify": "https://open.spotify.com/playlist/37i9dQZF1EJCdizk9hZ9J7"
      }, 
      "href": "https://api.spotify.com/v1/playlists/37i9dQZF1EJCdizk9hZ9J7", 
      "id": "37i9dQZF1EJCdizk9hZ9J7", 
      "images": [
        {
          "height": null, 
          "url": "https://blend-playlist-covers.spotifycdn.com/v2/blend_LARGE-forest-seafoam-en.jpg", 
          "width": null
        }
      ], 
      "name": "Adhityaa + Aaditya", 
      "owner": {
        "display_name": "Spotify", 
        "external_urls": {
          "spotify": "https://open.spotify.com/user/spotify"
        }, 
        "href": "https://api.spotify.com/v1/users/spotify", 
        "id": "spotify", 
        "type": "user", 
        "uri": "spotify:user:spotify"
      }, 
      "primary_color": null, 
      "public": false, 
      "snapshot_id": "MCwwMDAwMDAwMDhiM2MzNjUwMTg3N2JhMzg2Y2E3ZTBiZDc5YTBhZjI5", 
      "tracks": {
        "href": "https://api.spotify.com/v1/playlists/37i9dQZF1EJCdizk9hZ9J7/tracks", 
        "total": 50
      }, 
      "type": "playlist", 
      "uri": "spotify:playlist:37i9dQZF1EJCdizk9hZ9J7"
    }, 
    {
      "collaborative": false, 
      "description": "", 
      "external_urls": {
        "spotify": "https://open.spotify.com/playlist/5BDigMLDtkKSPhrh2rUESF"
      }, 
      "href": "https://api.spotify.com/v1/playlists/5BDigMLDtkKSPhrh2rUESF", 
      "id": "5BDigMLDtkKSPhrh2rUESF", 
      "images": [
        {
          "height": 640, 
          "url": "https://mosaic.scdn.co/640/ab67616d0000b27327ddd747545c0d0cfe7595faab67616d0000b2732bd281188f485ea182f3bd84ab67616d0000b27361fd2c8d1a1cbf1fdc10b98fab67616d0000b27373b8d34fa1ece5bb3cbf6bfb", 
          "width": 640
        }, 
        {
          "height": 300, 
          "url": "https://mosaic.scdn.co/300/ab67616d0000b27327ddd747545c0d0cfe7595faab67616d0000b2732bd281188f485ea182f3bd84ab67616d0000b27361fd2c8d1a1cbf1fdc10b98fab67616d0000b27373b8d34fa1ece5bb3cbf6bfb", 
          "width": 300
        }, 
        {
          "height": 60, 
          "url": "https://mosaic.scdn.co/60/ab67616d0000b27327ddd747545c0d0cfe7595faab67616d0000b2732bd281188f485ea182f3bd84ab67616d0000b27361fd2c8d1a1cbf1fdc10b98fab67616d0000b27373b8d34fa1ece5bb3cbf6bfb", 
          "width": 60
        }
      ], 
      "name": "MakeMeMove", 
      "owner": {
        "display_name": "Blake", 
        "external_urls": {
          "spotify": "https://open.spotify.com/user/vbvj8a8w5uz54tdwo8ktbvfk8"
        }, 
        "href": "https://api.spotify.com/v1/users/vbvj8a8w5uz54tdwo8ktbvfk8", 
        "id": "vbvj8a8w5uz54tdwo8ktbvfk8", 
        "type": "user", 
        "uri": "spotify:user:vbvj8a8w5uz54tdwo8ktbvfk8"
      }, 
      "primary_color": null, 
      "public": false, 
      "snapshot_id": "MjgsYmEyNzNhN2VlODZhNGRmOWY5NjhkNjk4MWNlMDdhMzgyOTMzNzg4ZQ==", 
      "tracks": {
        "href": "https://api.spotify.com/v1/playlists/5BDigMLDtkKSPhrh2rUESF/tracks", 
        "total": 24
      }, 
      "type": "playlist", 
      "uri": "spotify:playlist:5BDigMLDtkKSPhrh2rUESF"
    }, 
    {
      "collaborative": false, 
      "description": "", 
      "external_urls": {
        "spotify": "https://open.spotify.com/playlist/1oT2ZtPDeyONncF5i2K82M"
      }, 
      "href": "https://api.spotify.com/v1/playlists/1oT2ZtPDeyONncF5i2K82M", 
      "id": "1oT2ZtPDeyONncF5i2K82M", 
      "images": [
        {
          "height": 640, 
          "url": "https://mosaic.scdn.co/640/ab67616d0000b273171f77d57ffa5aed589b1b06ab67616d0000b27330ca41ca509871de84b3fea9ab67616d0000b273a14b08b9a6616e121df5e8b0ab67616d0000b273a496dc8c33ca6d10668b3157", 
          "width": 640
        }, 
        {
          "height": 300, 
          "url": "https://mosaic.scdn.co/300/ab67616d0000b273171f77d57ffa5aed589b1b06ab67616d0000b27330ca41ca509871de84b3fea9ab67616d0000b273a14b08b9a6616e121df5e8b0ab67616d0000b273a496dc8c33ca6d10668b3157", 
          "width": 300
        }, 
        {
          "height": 60, 
          "url": "https://mosaic.scdn.co/60/ab67616d0000b273171f77d57ffa5aed589b1b06ab67616d0000b27330ca41ca509871de84b3fea9ab67616d0000b273a14b08b9a6616e121df5e8b0ab67616d0000b273a496dc8c33ca6d10668b3157", 
          "width": 60
        }
      ], 
      "name": "skrrt skrrt", 
      "owner": {
        "display_name": "Aaditya", 
        "external_urls": {
          "spotify": "https://open.spotify.com/user/ivzyswosox3xjkxekxxc7mw0m"
        }, 
        "href": "https://api.spotify.com/v1/users/ivzyswosox3xjkxekxxc7mw0m", 
        "id": "ivzyswosox3xjkxekxxc7mw0m", 
        "type": "user", 
        "uri": "spotify:user:ivzyswosox3xjkxekxxc7mw0m"
      }, 
      "primary_color": null, 
      "public": true, 
      "snapshot_id": "OTAsMjVjNmEyN2ZjZTI0ZTQ1OTg4NmYyNDkzZTU1ZWFhNTBhOTBlMzAxZQ==", 
      "tracks": {
        "href": "https://api.spotify.com/v1/playlists/1oT2ZtPDeyONncF5i2K82M/tracks", 
        "total": 60
      }, 
      "type": "playlist", 
      "uri": "spotify:playlist:1oT2ZtPDeyONncF5i2K82M"
    }, 
    {
      "collaborative": false, 
      "description": "All the old tunes in one", 
      "external_urls": {
        "spotify": "https://open.spotify.com/playlist/6c8eo2rueqZSJWS4U9DVHT"
      }, 
      "href": "https://api.spotify.com/v1/playlists/6c8eo2rueqZSJWS4U9DVHT", 
      "id": "6c8eo2rueqZSJWS4U9DVHT", 
      "images": [
        {
          "height": null, 
          "url": "https://i.scdn.co/image/ab67706c0000bebb0213e6757e9f24778d0f0182", 
          "width": null
        }
      ], 
      "name": "funky music", 
      "owner": {
        "display_name": "nickkboulton", 
        "external_urls": {
          "spotify": "https://open.spotify.com/user/nickkboulton"
        }, 
        "href": "https://api.spotify.com/v1/users/nickkboulton", 
        "id": "nickkboulton", 
        "type": "user", 
        "uri": "spotify:user:nickkboulton"
      }, 
      "primary_color": null, 
      "public": false, 
      "snapshot_id": "MTAwMSw4ZjA3MTVjOGE5NGI0ZmNiZGIwNWE5MmVkZWVhYjhmMmExYzllZWJm", 
      "tracks": {
        "href": "https://api.spotify.com/v1/playlists/6c8eo2rueqZSJWS4U9DVHT/tracks", 
        "total": 401
      }, 
      "type": "playlist", 
      "uri": "spotify:playlist:6c8eo2rueqZSJWS4U9DVHT"
    }, 
    {
      "collaborative": false, 
      "description": "<a href=spotify:playlist:37i9dQZF1EIV7o0x88EYzk>Jimmy Cliff</a>, <a href=spotify:playlist:37i9dQZF1EIUZiX7MY7ZFl>The Abyssinians</a>, <a href=spotify:playlist:37i9dQZF1EIXZColRJSDtZ>Keznamdi</a> and more", 
      "external_urls": {
        "spotify": "https://open.spotify.com/playlist/37i9dQZF1EQpjs4F0vUZ1x"
      }, 
      "href": "https://api.spotify.com/v1/playlists/37i9dQZF1EQpjs4F0vUZ1x", 
      "id": "37i9dQZF1EQpjs4F0vUZ1x", 
      "images": [
        {
          "height": null, 
          "url": "https://seed-mix-image.spotifycdn.com/v6/img/reggae/3rJ3m1tM6vUgiWLjfV8sRf/en/large", 
          "width": null
        }
      ], 
      "name": "Reggae Mix", 
      "owner": {
        "display_name": "Spotify", 
        "external_urls": {
          "spotify": "https://open.spotify.com/user/spotify"
        }, 
        "href": "https://api.spotify.com/v1/users/spotify", 
        "id": "spotify", 
        "type": "user", 
        "uri": "spotify:user:spotify"
      }, 
      "primary_color": null, 
      "public": false, 
      "snapshot_id": "MTY4ODQ1MDQwMCwwMDAwMDAwMDc2NGFlYjE1ZjdiYmRjOGUxMzUwNmQ3NDFjOTI3ZmNl", 
      "tracks": {
        "href": "https://api.spotify.com/v1/playlists/37i9dQZF1EQpjs4F0vUZ1x/tracks", 
        "total": 50
      }, 
      "type": "playlist", 
      "uri": "spotify:playlist:37i9dQZF1EQpjs4F0vUZ1x"
    }, 
    {
      "collaborative": false, 
      "description": "This is Charlie Puth. The essential tracks, all in one playlist.", 
      "external_urls": {
        "spotify": "https://open.spotify.com/playlist/37i9dQZF1DZ06evO45Xg7m"
      }, 
      "href": "https://api.spotify.com/v1/playlists/37i9dQZF1DZ06evO45Xg7m", 
      "id": "37i9dQZF1DZ06evO45Xg7m", 
      "images": [
        {
          "height": null, 
          "url": "https://thisis-images.scdn.co/37i9dQZF1DZ06evO45Xg7m-large.jpg", 
          "width": null
        }
      ], 
      "name": "This Is Charlie Puth", 
      "owner": {
        "display_name": "Spotify", 
        "external_urls": {
          "spotify": "https://open.spotify.com/user/spotify"
        }, 
        "href": "https://api.spotify.com/v1/users/spotify", 
        "id": "spotify", 
        "type": "user", 
        "uri": "spotify:user:spotify"
      }, 
      "primary_color": null, 
      "public": false, 
      "snapshot_id": "MjgxNDEzMDYsMDAwMDAwMDA2ZDY0ZWI1NmFmNzY3NWIyNGEwNjIyZTEzZGMwZDk4Nw==", 
      "tracks": {
        "href": "https://api.spotify.com/v1/playlists/37i9dQZF1DZ06evO45Xg7m/tracks", 
        "total": 43
      }, 
      "type": "playlist", 
      "uri": "spotify:playlist:37i9dQZF1DZ06evO45Xg7m"
    }, 
    {
      "collaborative": false, 
      "description": "", 
      "external_urls": {
        "spotify": "https://open.spotify.com/playlist/5VvPWQaFRZnf3aLRNbRdku"
      }, 
      "href": "https://api.spotify.com/v1/playlists/5VvPWQaFRZnf3aLRNbRdku", 
      "id": "5VvPWQaFRZnf3aLRNbRdku", 
      "images": [
        {
          "height": null, 
          "url": "https://i.scdn.co/image/ab67706c0000bebbcfa589c782339f3e44be07fd", 
          "width": null
        }
      ], 
      "name": "Guy Ritchie | Soundtracks", 
      "owner": {
        "display_name": "J\u00e9r\u00e9my V.", 
        "external_urls": {
          "spotify": "https://open.spotify.com/user/an5ufks5d2030z9p1txc0mvjq"
        }, 
        "href": "https://api.spotify.com/v1/users/an5ufks5d2030z9p1txc0mvjq", 
        "id": "an5ufks5d2030z9p1txc0mvjq", 
        "type": "user", 
        "uri": "spotify:user:an5ufks5d2030z9p1txc0mvjq"
      }, 
      "primary_color": null, 
      "public": false, 
      "snapshot_id": "MTIsMjhkZjA4YWYxZTU5MDEzZDY3MzM1MDM2YjBkN2Y5MWZlNmYwMjcwYg==", 
      "tracks": {
        "href": "https://api.spotify.com/v1/playlists/5VvPWQaFRZnf3aLRNbRdku/tracks", 
        "total": 63
      }, 
      "type": "playlist", 
      "uri": "spotify:playlist:5VvPWQaFRZnf3aLRNbRdku"
    }, 
    {
      "collaborative": false, 
      "description": "", 
      "external_urls": {
        "spotify": "https://open.spotify.com/playlist/5azDfgcxqGsNUsHQpMXdWe"
      }, 
      "href": "https://api.spotify.com/v1/playlists/5azDfgcxqGsNUsHQpMXdWe", 
      "id": "5azDfgcxqGsNUsHQpMXdWe", 
      "images": [
        {
          "height": null, 
          "url": "https://i.scdn.co/image/ab67706c0000bebb1e75febad3d554f5c80e678b", 
          "width": null
        }
      ], 
      "name": "click play for instant dopamine", 
      "owner": {
        "display_name": "Krit Grover", 
        "external_urls": {
          "spotify": "https://open.spotify.com/user/21pgzyr7wjmjdenv3yhslz3ki"
        }, 
        "href": "https://api.spotify.com/v1/users/21pgzyr7wjmjdenv3yhslz3ki", 
        "id": "21pgzyr7wjmjdenv3yhslz3ki", 
        "type": "user", 
        "uri": "spotify:user:21pgzyr7wjmjdenv3yhslz3ki"
      }, 
      "primary_color": null, 
      "public": false, 
      "snapshot_id": "MTU2LDE5ODFhMmUxZGZiODJjZDVmZTEwZjFjNDI0ZDY4ZDhmMzdlM2M4ZjI=", 
      "tracks": {
        "href": "https://api.spotify.com/v1/playlists/5azDfgcxqGsNUsHQpMXdWe/tracks", 
        "total": 68
      }, 
      "type": "playlist", 
      "uri": "spotify:playlist:5azDfgcxqGsNUsHQpMXdWe"
    }, 
    {
      "collaborative": false, 
      "description": "", 
      "external_urls": {
        "spotify": "https://open.spotify.com/playlist/1WoJ9LkqxwlOTHuz08YcmY"
      }, 
      "href": "https://api.spotify.com/v1/playlists/1WoJ9LkqxwlOTHuz08YcmY", 
      "id": "1WoJ9LkqxwlOTHuz08YcmY", 
      "images": [
        {
          "height": null, 
          "url": "https://i.scdn.co/image/ab67706c0000bebb7c4c623cd18255d1e9e6bf8c", 
          "width": null
        }
      ], 
      "name": "WOOOSH \ud83e\udd71", 
      "owner": {
        "display_name": "s0mxd", 
        "external_urls": {
          "spotify": "https://open.spotify.com/user/s0mxd"
        }, 
        "href": "https://api.spotify.com/v1/users/s0mxd", 
        "id": "s0mxd", 
        "type": "user", 
        "uri": "spotify:user:s0mxd"
      }, 
      "primary_color": null, 
      "public": false, 
      "snapshot_id": "NjA4LDI5MTA5YmUxZGE4ZGU5OWI3YzJkZTZhZDE3MjdlZTYyZWViMzBjYWU=", 
      "tracks": {
        "href": "https://api.spotify.com/v1/playlists/1WoJ9LkqxwlOTHuz08YcmY/tracks", 
        "total": 230
      }, 
      "type": "playlist", 
      "uri": "spotify:playlist:1WoJ9LkqxwlOTHuz08YcmY"
    }
  ], 
  "limit": 10, 
  "next": "https://api.spotify.com/v1/users/ivzyswosox3xjkxekxxc7mw0m/playlists?offset=10&limit=10", 
  "offset": 0, 
  "previous": null, 
  "total": 23
}